{
  "number": 0,
  "numberOfElements": 20,
  "size": 20,
  "totalElements": 760,
  "totalPages": 38,
  "content": [
    {
      "facilityCode": "01060610",
      "facilityName": "Centro de Saúde de Dunda",
      "productMovements": [
        {
          "productCode": "08O05",
          "productName": "Artemeter+Lumefantrina; 120mg+20mg 1x6; Comp",
          "stockOnHand": 110,
          "stockMovementItems": [
            {
              "movementQuantity": -2,
              "type": "PHYSICAL_INVENTORY",
              "stockOnHand": 110,
              "signature": "ysw",
              "serverProcessedDate": "2021-08-18T09:13:29.432Z",
              "processedDate": "2021-08-11T07:06:57.673Z",
              "occurredDate": "2021-08-11",
              "documentNumber": null,
              "reason": "INVENTORY_NEGATIVE",
              "requested": null,
              "lotMovementItems": [
                {
                  "reason": "INVENTORY",
                  "lotCode": "SEM-LOTE-08O05-032022",
                  "expirationDate": "2022-03-31",
                  "quantity": 0,
                  "stockOnHand": 30
                },
                {
                  "reason": "INVENTORY_POSITIVE",
                  "lotCode": "SEM-LOTE-08O05-042023",
                  "expirationDate": "2023-04-31",
                  "quantity": 3,
                  "stockOnHand": 40
                },
                {
                  "reason": "INVENTORY_NEGATIVE",
                  "lotCode": "SEM-LOTE-08O05-052024",
                  "expirationDate": "2024-05-31",
                  "quantity": -5,
                  "stockOnHand": 40
                }
              ]
            }
          ]
        },
        {
          "productCode": "08A07",
          "productName": "Amoxicilina trihidrato test; 500mg; Caps",
          "stockOnHand": 127,
          "stockMovementItems": [
            {
              "movementQuantity": 0,
              "type": "PHYSICAL_INVENTORY",
              "stockOnHand": 100,
              "signature": "ysw",
              "serverProcessedDate": "2021-08-18T09:13:29.432Z",
              "processedDate": "2021-08-11T07:06:57.646Z",
              "occurredDate": "2021-08-11",
              "documentNumber": null,
              "reason": "INVENTORY",
              "requested": null,
              "lotMovementItems": [
                {
                  "reason": "INVENTORY",
                  "lotCode": "SEM-LOTE-08A07-082023",
                  "expirationDate": "2023-08-31",
                  "quantity": 0,
                  "stockOnHand": 100
                }
              ]
            },
            {
              "movementQuantity": 35,
              "type": "RECEIVE",
              "stockOnHand": 135,
              "signature": "ysw",
              "serverProcessedDate": "2021-08-18T09:13:29.432Z",
              "processedDate": "2021-08-11T07:08:21.579Z",
              "occurredDate": "2021-08-11",
              "documentNumber": "doc-001",
              "reason": "DISTRICT_DDM",
              "requested": null,
              "lotMovementItems": [
                {
                  "reason": "DISTRICT_DDM",
                  "lotCode": "SEM-LOTE-08A07-082023",
                  "expirationDate": "2023-08-31",
                  "quantity": 35,
                  "stockOnHand": 135
                }
              ]
            },
            {
              "movementQuantity": -8,
              "type": "ISSUE",
              "stockOnHand": 127,
              "signature": "ysw",
              "serverProcessedDate": "2021-08-18T09:13:29.432Z",
              "processedDate": "2021-08-11T07:08:41.977Z",
              "occurredDate": "2021-08-11",
              "documentNumber": "doc-002",
              "reason": "GENERAL_WARD",
              "requested": 8,
              "lotMovementItems": [
                {
                  "reason": "GENERAL_WARD",
                  "lotCode": "SEM-LOTE-08A07-082023",
                  "expirationDate": "2023-08-31",
                  "quantity": -8,
                  "stockOnHand": 127
                }
              ]
            }
          ]
        },
        {
          "productCode": "26B01",
          "productName": "KIT AL/US (Artemeter+Lumefantrina); 170 Tratamentos+ 400 Testes; KIT",
          "stockOnHand": 15,
          "stockMovementItems": [
            {
              "movementQuantity": 0,
              "type": "PHYSICAL_INVENTORY",
              "stockOnHand": 0,
              "signature": "ysw",
              "serverProcessedDate": "2021-08-18T09:13:29.432Z",
              "processedDate": "2021-08-11T07:07:02.756Z",
              "occurredDate": "2021-08-11",
              "documentNumber": null,
              "reason": "INVENTORY",
              "requested": null,
              "lotMovementItems": null
            },
            {
              "movementQuantity": 15,
              "type": "RECEIVE",
              "stockOnHand": 15,
              "signature": "ysw",
              "serverProcessedDate": "2021-08-18T09:13:29.432Z",
              "processedDate": "2021-08-11T07:07:41.029Z",
              "occurredDate": "2021-08-11",
              "documentNumber": "doc-003",
              "reason": "DISTRICT_DDM",
              "requested": null,
              "lotMovementItems": null
            }
          ]
        }
      ]
    }
  ]
}