{
  "number": 0,
  "numberOfElements": 20,
  "size": 20,
  "totalElements": 760,
  "totalPages": 38,
  "content": [
    {
      "facilityCode": "01060610",
      "facilityName": "Centro de Saúde de Dunda",
      "products": [
        {
          "productCode": "08O05",
          "productName": "Artemeter+Lumefantrina; 120mg+20mg 1x6; Comp",
          "stockOnHand": 57,
          "dateOfStock": "2021-01-08",
          "lots": [
            {
              "lotCode": "SEM-LOTE-08O05-032022",
              "expirationDate": "2022-03-31",
              "stockOnHand": 30,
              "dateOfStock": "2021-01-08"
            },
            {
              "lotCode": "SEM-LOTE-08O05-082023",
              "expirationDate": "2023-08-31",
              "stockOnHand": 27,
              "dateOfStock": "2021-01-01"
            }
          ]
        },
        {
          "productCode": "08A07",
          "productName": "Amoxicilina trihidrato test; 500mg; Caps",
          "stockOnHand": 124,
          "dateOfStock": "2021-01-11",
          "lots": [
            {
              "lotCode": "SEM-LOTE-08A07-032032",
              "expirationDate": "2032-03-31",
              "stockOnHand": 11,
              "dateOfStock": "2021-01-11"
            },
            {
              "lotCode": "SEM-LOTE-08A07-072024",
              "expirationDate": "2024-07-31",
              "stockOnHand": 113,
              "dateOfStock": "2021-01-07"
            }
          ]
        },
        {
          "productCode": "26B01",
          "productName": "KIT AL/US (Artemeter+Lumefantrina); 170 Tratamentos+ 400 Testes; KIT",
          "stockOnHand": 15,
          "dateOfStock": "2021-01-02",
          "lots": []
        }
      ]
    }
  ]
}